Statistical profiling result from 2-prof-report-v8.log, (4057 ticks, 6 unaccounted, 0 excluded).

 [Shared libraries]:
   ticks  total  nonlib   name
     17    0.4%          /usr/lib/system/libsystem_platform.dylib
     12    0.3%          /usr/lib/system/libsystem_kernel.dylib
     10    0.2%          /usr/lib/system/libsystem_pthread.dylib
      5    0.1%          /usr/lib/system/libsystem_malloc.dylib
      2    0.0%          /usr/lib/libc++.1.dylib

 [JavaScript]:
   ticks  total  nonlib   name
     12    0.3%    0.3%  LazyCompile: *next /Users/marcelourreli/src/backend/coder-house-backend/coder-desafio-32/node_modules/express/lib/router/index.js:176:16
      9    0.2%    0.2%  LazyCompile: *serializeInto /Users/marcelourreli/src/backend/coder-house-backend/coder-desafio-32/node_modules/bson/lib/parser/serializer.js:549:23
      3    0.1%    0.1%  LazyCompile: *resolve path.js:973:10
      3    0.1%    0.1%  LazyCompile: *onwrite _stream_writable.js:431:17
      3    0.1%    0.1%  LazyCompile: *onStreamRead internal/stream_base_commons.js:165:22
      3    0.1%    0.1%  LazyCompile: *Writable.write _stream_writable.js:291:36
      2    0.0%    0.0%  RegExp: ^[\^_`a-zA-Z\-0-9!#$%&'*+.|~]+$
      2    0.0%    0.0%  LazyCompile: *write buffer.js:1039:40
      2    0.0%    0.0%  LazyCompile: *normalizeString path.js:52:25
      2    0.0%    0.0%  LazyCompile: *dirname path.js:1127:10
      2    0.0%    0.0%  LazyCompile: *afterWriteTick _stream_writable.js:475:24
      2    0.0%    0.0%  LazyCompile: *_unrefTimer net.js:393:52
      1    0.0%    0.0%  RegExp: ^((?:(?:[0-9a-fA-F]{1,4}):){7}(?:(?:[0-9a-fA-F]{1,4})|:)|(?:(?:[0-9a-fA-F]{1,4}):){6}(?:((?:[0-9]|[1-9][0-9]|1[0-9][0-9]|2[0-4][0-9]|25[0-5])[.]){3}(?:[0-9]|[1-9][0-9]|1[0-9][0-9]|2[0-4][0-9]|25[0-5])|:(?:[0-9a-fA-F]{1,4})|:)|(?:(?:[0-9a-fA-F]{1,4}):){5}(?::((?:[0-9]|[1-9][0-9]|1[0-9][0-9]|2[0-4][0-9]|25[0-5])[.]){3}(?:[0-9]|[1-9][0-9]|1[0-9][0-9]|2[0-4][0-9]|25[0-5])|(:(?:[0-9a-fA-F]{1,4})){1,2}|:)|(?:(?:[0-9a-fA-F]{1,4}):){4}(?:(:(?:[0-9a-fA-F]{1,4})){0,1}:((?:[0-9]|[1-9][0-9]|1[0-9][0-9]|2[0-4][0-9]|25[0-5])[.]){3}(?:[0-9]|[1-9][0-9]|1[0-9][0-9]|2[0-4][0-9]|25[0-5])|(:(?:[0-9a-fA-F]{1,4})){1,3}|:)|(?:(?:[0-9a-fA-F]{1,4}):){3}(?:(:(?:[0-9a-fA-F]{1,4})){0,2}:((?:[0-9]|[1-9][0-9]|1[0-9][0-9]|2[0-4][0-9]|25[0-5])[.]){3}(?:[0-9]|[1-9][0-9]|1[0-9][0-9]|2[0-4][0-9]|25[0-5])|(:(?:[0-9a-fA-F]{1,4})){1,4}|:)|(?:(?:[0-9a-fA-F]{1,4}):){2}(?:(:(?:[0-9a-fA-F]{1,4})){0,3}:((?:[0-9]|[1-9][0-9]|1[0-9][0-9]|2[0-4][0-9]|25[0-5])[.]){3}(?:[0-9]|[1-9][0-9]|1[0-9][0-9]|2[0-4][0-9]|25[0-5])|(:(?:[0-9a-fA-F]{1,4})){1,5}|:)|(?:(?:[0-9a-fA-F]{1,4}):){1}(?:(:(?:[0-9a-fA-F]{1,4})){0,4}:((?:[0-9]|[1-9][0-9]|1[0-9][0-9]|2[0-4][0-9]|25[0-5])[.]){3}(?:[0-9]|[1-9][0-9]|1[0-9][0-9]|2[0-4][0-9]|25[0-5])|(:(?:[0-9a-fA-F]{1,4})){1,6}|:)|(?::((?::(?:[0-9a-fA-F]{1,4})){0,5}:((?:[0-9]|[1-9][0-9]|1[0-9][0-9]|2[0-4][0-9]|25[0-5])[.]){3}(?:[0-9]|[1-9][0-9]|1[0-9][0-9]|2[0-4][0-9]|25[0-5])|(?::(?:[0-9a-fA-F]{1,4})){1,7}|:)))(%[0-9a-zA-Z-.:]{1,})?$
      1    0.0%    0.0%  RegExp: \.\d+
      1    0.0%    0.0%  RegExp: ;\s*charset\s*=
      1    0.0%    0.0%  RegExp: ; *([!#$%&'*+.^_`|~0-9A-Za-z-]+) *= *("(?:[\u000b\u0020\u0021\u0023-\u005b\u005d-\u007e\u0080-\u00ff]|\\[\u000b\u0020-\u00ff])*"|[!#$%&'*+.^_`|~0-9A-Za-z-]+) *
      1    0.0%    0.0%  LazyCompile: *serializeString /Users/marcelourreli/src/backend/coder-house-backend/coder-desafio-32/node_modules/bson/lib/parser/serializer.js:19:25
      1    0.0%    0.0%  LazyCompile: *serializeObject /Users/marcelourreli/src/backend/coder-house-backend/coder-desafio-32/node_modules/bson/lib/parser/serializer.js:257:25
      1    0.0%    0.0%  LazyCompile: *readableAddChunk _stream_readable.js:221:26
      1    0.0%    0.0%  LazyCompile: *now /Users/marcelourreli/src/backend/coder-house-backend/coder-desafio-32/node_modules/mongodb/lib/utils.js:737:13
      1    0.0%    0.0%  LazyCompile: *noop internal/util/debuglog.js:36:14
      1    0.0%    0.0%  LazyCompile: *maybePromise /Users/marcelourreli/src/backend/coder-house-backend/coder-desafio-32/node_modules/mongodb/lib/utils.js:506:22
      1    0.0%    0.0%  LazyCompile: *internalBinding internal/bootstrap/loaders.js:133:45
      1    0.0%    0.0%  LazyCompile: *handleErrorFromBinding internal/fs/utils.js:264:32
      1    0.0%    0.0%  LazyCompile: *get _stream_duplex.js:76:8
      1    0.0%    0.0%  LazyCompile: *deserializeObject /Users/marcelourreli/src/backend/coder-house-backend/coder-desafio-32/node_modules/bson/lib/parser/deserializer.js:53:27
      1    0.0%    0.0%  LazyCompile: *command /Users/marcelourreli/src/backend/coder-house-backend/coder-desafio-32/node_modules/mongodb/lib/sdam/server.js:133:12
      1    0.0%    0.0%  LazyCompile: *command /Users/marcelourreli/src/backend/coder-house-backend/coder-desafio-32/node_modules/mongodb/lib/cmap/connection.js:161:12
      1    0.0%    0.0%  LazyCompile: *Timestamp /Users/marcelourreli/src/backend/coder-house-backend/coder-desafio-32/node_modules/bson/lib/timestamp.js:26:23
      1    0.0%    0.0%  LazyCompile: *Readable.read _stream_readable.js:378:35
      1    0.0%    0.0%  LazyCompile: *Module._nodeModulePaths internal/modules/cjs/loader.js:567:37
      1    0.0%    0.0%  LazyCompile: *Long.compare /Users/marcelourreli/src/backend/coder-house-backend/coder-desafio-32/node_modules/bson/lib/long.js:291:39
      1    0.0%    0.0%  LazyCompile: *Long /Users/marcelourreli/src/backend/coder-house-backend/coder-desafio-32/node_modules/bson/lib/long.js:58:18

 [C++]:
   ticks  total  nonlib   name
   1696   41.8%   42.3%  T _fcntl$NOCANCEL
   1327   32.7%   33.1%  T __ZN2v88internal33Builtin_CallSitePrototypeToStringEiPmPNS0_7IsolateE
    184    4.5%    4.6%  t node::fs::Read(v8::FunctionCallbackInfo<v8::Value> const&)
    125    3.1%    3.1%  T node::contextify::ContextifyContext::CompileFunction(v8::FunctionCallbackInfo<v8::Value> const&)
     53    1.3%    1.3%  T void node::StreamBase::JSMethod<&(node::StreamBase::WriteBuffer(v8::FunctionCallbackInfo<v8::Value> const&))>(v8::FunctionCallbackInfo<v8::Value> const&)
     51    1.3%    1.3%  T node::native_module::NativeModuleEnv::CompileFunction(v8::FunctionCallbackInfo<v8::Value> const&)
     40    1.0%    1.0%  T void node::StreamBase::JSMethod<&(node::StreamBase::Writev(v8::FunctionCallbackInfo<v8::Value> const&))>(v8::FunctionCallbackInfo<v8::Value> const&)
     38    0.9%    0.9%  T __kernelrpc_vm_remap
     36    0.9%    0.9%  t node::fs::InternalModuleReadJSON(v8::FunctionCallbackInfo<v8::Value> const&)
     29    0.7%    0.7%  T __ZN4node6crypto7SSLWrapINS_7TLSWrapEE18GetPeerCertificateERKN2v820FunctionCallbackInfoINS4_5ValueEEE
     28    0.7%    0.7%  T _fstatfs64
     19    0.5%    0.5%  t node::fs::Open(v8::FunctionCallbackInfo<v8::Value> const&)
     15    0.4%    0.4%  t node::fs::InternalModuleStat(v8::FunctionCallbackInfo<v8::Value> const&)
     13    0.3%    0.3%  T _proc_set_dirty
     12    0.3%    0.3%  t _tiny_malloc_should_clear
     11    0.3%    0.3%  t __malloc_initialize
     11    0.3%    0.3%  T _task_get_special_port
     10    0.2%    0.2%  t __ZN2v88internal25FunctionCallbackArguments4CallENS0_15CallHandlerInfoE
      8    0.2%    0.2%  t ___vfprintf
      8    0.2%    0.2%  T ___pthread_init
      8    0.2%    0.2%  T __ZN4node6crypto4Hash3NewERKN2v820FunctionCallbackInfoINS2_5ValueEEE
      8    0.2%    0.2%  T __ZN4node6crypto13SecureContext12AddRootCertsERKN2v820FunctionCallbackInfoINS2_5ValueEEE
      7    0.2%    0.2%  t __ZN2v88internal12_GLOBAL__N_119HandleApiCallHelperILb0EEENS0_11MaybeHandleINS0_6ObjectEEEPNS0_7IsolateENS0_6HandleINS0_10HeapObjectEEESA_NS8_INS0_20FunctionTemplateInfoEEENS8_IS4_EENS0_16BuiltinArgumentsE
      7    0.2%    0.2%  T _freopen
      7    0.2%    0.2%  T __ZN4node6crypto4Hmac8HmacInitERKN2v820FunctionCallbackInfoINS2_5ValueEEE
      6    0.1%    0.1%  t node::fs::FStat(v8::FunctionCallbackInfo<v8::Value> const&)
      6    0.1%    0.1%  T _mmap
      6    0.1%    0.1%  T __ZN4node6crypto4Hash10HashDigestERKN2v820FunctionCallbackInfoINS2_5ValueEEE
      4    0.1%    0.1%  t node::EnvGetter(v8::Local<v8::Name>, v8::PropertyCallbackInfo<v8::Value> const&)
      4    0.1%    0.1%  t _szone_malloc_should_clear
      4    0.1%    0.1%  T node::fs::Close(v8::FunctionCallbackInfo<v8::Value> const&)
      4    0.1%    0.1%  T node::TCPWrap::Connect(v8::FunctionCallbackInfo<v8::Value> const&)
      4    0.1%    0.1%  T ___getdirentries64
      3    0.1%    0.1%  t void node::Buffer::(anonymous namespace)::StringWrite<(node::encoding)1>(v8::FunctionCallbackInfo<v8::Value> const&)
      3    0.1%    0.1%  t void node::Buffer::(anonymous namespace)::StringWrite<(node::encoding)0>(v8::FunctionCallbackInfo<v8::Value> const&)
      3    0.1%    0.1%  t void node::Buffer::(anonymous namespace)::StringSlice<(node::encoding)1>(v8::FunctionCallbackInfo<v8::Value> const&)
      3    0.1%    0.1%  t _rack_init
      3    0.1%    0.1%  t __ZN2v88internal17PrototypeIterator7AdvanceEv
      3    0.1%    0.1%  T std::__1::ios_base::Init::Init()
      3    0.1%    0.1%  T __ZNK2v86String9WriteUtf8EPNS_7IsolateEPciPii
      3    0.1%    0.1%  T __ZN4node7TLSWrap5StartERKN2v820FunctionCallbackInfoINS1_5ValueEEE
      3    0.1%    0.1%  T __ZN4node6crypto6PBKDF2ERKN2v820FunctionCallbackInfoINS1_5ValueEEE
      3    0.1%    0.1%  T __ZN4node6crypto4Hmac10HmacDigestERKN2v820FunctionCallbackInfoINS2_5ValueEEE
      3    0.1%    0.1%  T __ZN4node6crypto13SecureContext10SetCiphersERKN2v820FunctionCallbackInfoINS2_5ValueEEE
      3    0.1%    0.1%  T __ZN2v87Context5EnterEv
      2    0.0%    0.0%  t std::__1::basic_ostream<char, std::__1::char_traits<char> >& std::__1::__put_character_sequence<char, std::__1::char_traits<char> >(std::__1::basic_ostream<char, std::__1::char_traits<char> >&, char const*, unsigned long)
      2    0.0%    0.0%  t node::LibuvStreamWrap::Initialize(v8::Local<v8::Object>, v8::Local<v8::Value>, v8::Local<v8::Context>, void*)::$_0::__invoke(v8::FunctionCallbackInfo<v8::Value> const&)
      2    0.0%    0.0%  t node::Hrtime(v8::FunctionCallbackInfo<v8::Value> const&)
      2    0.0%    0.0%  t _tiny_free_list_add_ptr
      2    0.0%    0.0%  t _szone_calloc
      2    0.0%    0.0%  t _small_malloc_should_clear
      2    0.0%    0.0%  t _create_scalable_szone
      2    0.0%    0.0%  t __ZN2v88internalL26Builtin_Impl_HandleApiCallENS0_16BuiltinArgumentsEPNS0_7IsolateE
      2    0.0%    0.0%  t __ZN2v88internalL24Builtin_Impl_ArrayConcatENS0_16BuiltinArgumentsEPNS0_7IsolateE
      2    0.0%    0.0%  t __ZN2v88internal11StringShape33DispatchToSpecificTypeWithoutCastIZNS1_22DispatchToSpecificTypeIZNS0_6String3GetEiE19StringGetDispatchertJRiEEET0_S4_DpOT1_E17CastingDispatchertJRS4_S6_EEES7_SA_
      2    0.0%    0.0%  T node::errors::TryCatchScope::~TryCatchScope()
      2    0.0%    0.0%  T node::binding::GetInternalBinding(v8::FunctionCallbackInfo<v8::Value> const&)
      2    0.0%    0.0%  T node::binding::DLOpen(v8::FunctionCallbackInfo<v8::Value> const&)
      2    0.0%    0.0%  T node::TTYWrap::New(v8::FunctionCallbackInfo<v8::Value> const&)
      2    0.0%    0.0%  T _mach_msg_send
      2    0.0%    0.0%  T __ZN4node6crypto7NodeBIO4ReadEPcm
      2    0.0%    0.0%  T __ZN4node6crypto4Hash10HashUpdateERKN2v820FunctionCallbackInfoINS2_5ValueEEE
      2    0.0%    0.0%  T __ZN2v88internal25FunctionCallbackArgumentsC1EPNS0_7IsolateENS0_6ObjectENS0_10HeapObjectES4_S5_Pmi
      2    0.0%    0.0%  T __ZN2v88internal25Builtin_ArrayBufferIsViewEiPmPNS0_7IsolateE
      2    0.0%    0.0%  T __ZN2v88internal15AstValueFactory24GetOneByteStringInternalENS0_6VectorIKhEE
      2    0.0%    0.0%  T __ZN2v88TryCatchC2EPNS_7IsolateE
      1    0.0%    0.0%  t void std::__1::__tree_balance_after_insert<std::__1::__tree_node_base<void*>*>(std::__1::__tree_node_base<void*>*, std::__1::__tree_node_base<void*>*)
      1    0.0%    0.0%  t void node::Buffer::(anonymous namespace)::StringSlice<(node::encoding)2>(v8::FunctionCallbackInfo<v8::Value> const&)
      1    0.0%    0.0%  t std::__1::locale::__imp::__imp(unsigned long)
      1    0.0%    0.0%  t std::__1::__hash_iterator<std::__1::__hash_node<void*, void*>*> std::__1::__hash_table<void*, std::__1::hash<void*>, std::__1::equal_to<void*>, std::__1::allocator<void*> >::find<void*>(void* const&)
      1    0.0%    0.0%  t non-virtual thunk to node::http2::Http2Stream::HasWantsWrite() const
      1    0.0%    0.0%  t non-virtual thunk to node::(anonymous namespace)::Parser::OnStreamAlloc(unsigned long)
      1    0.0%    0.0%  t node::os::GetCPUInfo(v8::FunctionCallbackInfo<v8::Value> const&)
      1    0.0%    0.0%  t node::i18n::ToASCII(v8::FunctionCallbackInfo<v8::Value> const&)
      1    0.0%    0.0%  t node::fs::LStat(v8::FunctionCallbackInfo<v8::Value> const&)
      1    0.0%    0.0%  t node::cares_wrap::(anonymous namespace)::GetAddrInfo(v8::FunctionCallbackInfo<v8::Value> const&)
      1    0.0%    0.0%  t node::cares_wrap::(anonymous namespace)::ChannelWrap::New(v8::FunctionCallbackInfo<v8::Value> const&)
      1    0.0%    0.0%  t node::EnvQuery(v8::Local<v8::Name>, v8::PropertyCallbackInfo<v8::Integer> const&)
      1    0.0%    0.0%  t node::Buffer::(anonymous namespace)::ByteLengthUtf8(v8::FunctionCallbackInfo<v8::Value> const&)
      1    0.0%    0.0%  t node::AsyncHooks::push_async_context(double, double, v8::Local<v8::Object>)
      1    0.0%    0.0%  t node::(anonymous namespace)::Parser::Proxy<int (node::(anonymous namespace)::Parser::*)(char const*, unsigned long), &(node::(anonymous namespace)::Parser::on_url(char const*, unsigned long))>::Raw(llhttp__internal_s*, char const*, unsigned long)
      1    0.0%    0.0%  t _tiny_malloc_from_free_list
      1    0.0%    0.0%  t _small_malloc_from_free_list
      1    0.0%    0.0%  t _set_tiny_meta_header_in_use
      1    0.0%    0.0%  t _malloc_zone_register_while_locked
      1    0.0%    0.0%  t _free_tiny
      1    0.0%    0.0%  t _default_zone_free_definite_size
      1    0.0%    0.0%  t __pthread_mutex_check_init_slow
      1    0.0%    0.0%  t ___part_load_locale
      1    0.0%    0.0%  t __ZNSt3__16__treeIjNS_4lessIjEEN2v88internal13ZoneAllocatorIjEEE7destroyEPNS_11__tree_nodeIjPvEE
      1    0.0%    0.0%  t __ZN2v88internal6String7FlattenEPNS0_7IsolateENS0_6HandleIS1_EENS0_14AllocationTypeE
      1    0.0%    0.0%  t __ZN2v88internal19SequentialStringKeyIhE7IsMatchENS0_6StringE
      1    0.0%    0.0%  t __ZN2v88internal14LookupIterator17PropertyOrElementEPNS0_7IsolateENS0_6HandleINS0_6ObjectEEENS4_INS0_4NameEEENS4_INS0_10JSReceiverEEENS1_13ConfigurationE
      1    0.0%    0.0%  t __ZN2v88internal12_GLOBAL__N_133MatchArrayElementsKindToArgumentsEPNS0_7IsolateENS0_6HandleINS0_7JSArrayEEEPNS0_16BuiltinArgumentsEii
      1    0.0%    0.0%  t __ZN2v84base19TemplateHashMapImplIPvS2_NS0_26HashEqualityThenKeyMatcherIS2_PFbS2_S2_EEENS0_23DefaultAllocationPolicyEE14LookupOrInsertIZNS8_14LookupOrInsertERKS2_jS7_EUlvE_EEPNS0_20TemplateHashMapEntryIS2_S2_EESB_jRKT_S7_
      1    0.0%    0.0%  t __ZN2v812_GLOBAL__N_114CallDepthScopeILb1EEC1EPNS_8internal7IsolateENS_5LocalINS_7ContextEEE
      1    0.0%    0.0%  T std::__1::basic_string<char, std::__1::char_traits<char>, std::__1::allocator<char> >::__grow_by(unsigned long, unsigned long, unsigned long, unsigned long, unsigned long, unsigned long)
      1    0.0%    0.0%  T node::fs::Access(v8::FunctionCallbackInfo<v8::Value> const&)
      1    0.0%    0.0%  T node::NodePlatform::MonotonicallyIncreasingTime()
      1    0.0%    0.0%  T node::LibuvStreamWrap::OnUvRead(long, uv_buf_t const*)
      1    0.0%    0.0%  T node::HandleWrap::Close(v8::FunctionCallbackInfo<v8::Value> const&)
      1    0.0%    0.0%  T node::Environment::RunAndClearNativeImmediates(bool)
      1    0.0%    0.0%  T node::Environment::CheckImmediate(uv_check_s*)
      1    0.0%    0.0%  T node::BaseObject::MakeWeak()::'lambda'(v8::WeakCallbackInfo<node::BaseObject> const&)::__invoke(v8::WeakCallbackInfo<node::BaseObject> const&)
      1    0.0%    0.0%  T node::AsyncWrap::EmitTraceEventBefore()
      1    0.0%    0.0%  T node::AsyncWrap::EmitTraceEventAfter(node::AsyncWrap::ProviderType, double)
      1    0.0%    0.0%  T _thread_get_state
      1    0.0%    0.0%  T _tempnam
      1    0.0%    0.0%  T _semaphore_signal_trap
      1    0.0%    0.0%  T _semaphore_create
      1    0.0%    0.0%  T _realloc
      1    0.0%    0.0%  T _pthread_kill
      1    0.0%    0.0%  T _malloc_zone_calloc
      1    0.0%    0.0%  T _cosh$fenv_access_off
      1    0.0%    0.0%  T __kernelrpc_mach_port_insert_member_trap
      1    0.0%    0.0%  T __fseeko
      1    0.0%    0.0%  T ___sincos_stret
      1    0.0%    0.0%  T __ZNK2v85Value12IntegerValueENS_5LocalINS_7ContextEEE
      1    0.0%    0.0%  T __ZN4node7TLSWrap8ClearOutEv
      1    0.0%    0.0%  T __ZN4node7TLSWrap7ClearInEv
      1    0.0%    0.0%  T __ZN4node6crypto7NodeBIO19TryAllocateForWriteEm
      1    0.0%    0.0%  T __ZN4node6crypto13SecureContext4InitERKN2v820FunctionCallbackInfoINS2_5ValueEEE
      1    0.0%    0.0%  T __ZN4node6crypto13SecureContext3NewERKN2v820FunctionCallbackInfoINS2_5ValueEEE
      1    0.0%    0.0%  T __ZN4node6crypto11RandomBytesERKN2v820FunctionCallbackInfoINS1_5ValueEEE
      1    0.0%    0.0%  T __ZN2v88internal9Accessors23FunctionPrototypeGetterENS_5LocalINS_4NameEEERKNS_20PropertyCallbackInfoINS_5ValueEEE
      1    0.0%    0.0%  T __ZN2v88internal9Accessors20FunctionLengthGetterENS_5LocalINS_4NameEEERKNS_20PropertyCallbackInfoINS_5ValueEEE
      1    0.0%    0.0%  T __ZN2v88internal5Scope6LookupILNS1_15ScopeLookupModeE0EEEPNS0_8VariableEPNS0_13VariableProxyEPS1_S8_S8_b
      1    0.0%    0.0%  T __ZN2v88internal5Scope28AllocateVariablesRecursivelyEv
      1    0.0%    0.0%  T __ZN2v88internal21Builtin_HandleApiCallEiPmPNS0_7IsolateE
      1    0.0%    0.0%  T __ZN2v88internal18Builtin_ArrayShiftEiPmPNS0_7IsolateE
      1    0.0%    0.0%  T __ZN2v88internal16DeclarationScopeC2EPNS0_4ZoneEPNS0_15AstValueFactoryE
      1    0.0%    0.0%  T __ZN2v88internal15AstValueFactory9GetStringEjbNS0_6VectorIKhEE
      1    0.0%    0.0%  T __ZN2v88internal11VariableMap7DeclareEPNS0_4ZoneEPNS0_5ScopeEPKNS0_12AstRawStringENS0_12VariableModeENS0_12VariableKindENS0_18InitializationFlagENS0_17MaybeAssignedFlagEPb
      1    0.0%    0.0%  T __ZN2v87Context29GetNumberOfEmbedderDataFieldsEv
      1    0.0%    0.0%  T __ZN2v86Object3NewEPNS_7IsolateE
      1    0.0%    0.0%  T __ZN2v86Object3HasENS_5LocalINS_7ContextEEENS1_INS_5ValueEEE
      1    0.0%    0.0%  T __ZN2v815ArrayBufferView6BufferEv
      1    0.0%    0.0%  T __ZN2v811HandleScopeC1EPNS_7IsolateE

 [Summary]:
   ticks  total  nonlib   name
     66    1.6%    1.6%  JavaScript
   3939   97.1%   98.2%  C++
    103    2.5%    2.6%  GC
     46    1.1%          Shared libraries
      6    0.1%          Unaccounted

 [C++ entry points]:
   ticks    cpp   total   name
   1335   66.1%   32.9%  T __ZN2v88internal33Builtin_CallSitePrototypeToStringEiPmPNS0_7IsolateE
    665   32.9%   16.4%  T __ZN2v88internal21Builtin_HandleApiCallEiPmPNS0_7IsolateE
      5    0.2%    0.1%  T _mmap
      3    0.1%    0.1%  T __ZNK2v86String9WriteUtf8EPNS_7IsolateEPciPii
      2    0.1%    0.0%  T __ZN2v88internal25Builtin_ArrayBufferIsViewEiPmPNS0_7IsolateE
      2    0.1%    0.0%  T __ZN2v88internal19Builtin_ArrayConcatEiPmPNS0_7IsolateE
      2    0.1%    0.0%  T __ZN2v88internal18Builtin_ArrayShiftEiPmPNS0_7IsolateE
      1    0.0%    0.0%  t node::task_queue::RunMicrotasks(v8::FunctionCallbackInfo<v8::Value> const&)
      1    0.0%    0.0%  t _rack_init
      1    0.0%    0.0%  T __ZNK2v85Value12IntegerValueENS_5LocalINS_7ContextEEE
      1    0.0%    0.0%  T __ZN2v88internal20Builtin_ArrayUnshiftEiPmPNS0_7IsolateE
      1    0.0%    0.0%  T __ZN2v815ArrayBufferView6BufferEv

 [Bottom up (heavy) profile]:
  Note: percentage shows a share of a particular caller in the total
  amount of its parent calls.
  Callers occupying less than 1.0% are not shown.

   ticks parent  name
   1696   41.8%  T _fcntl$NOCANCEL

   1327   32.7%  T __ZN2v88internal33Builtin_CallSitePrototypeToStringEiPmPNS0_7IsolateE
    447   33.7%    T __ZN2v88internal33Builtin_CallSitePrototypeToStringEiPmPNS0_7IsolateE
     47   10.5%      T __ZN2v88internal33Builtin_CallSitePrototypeToStringEiPmPNS0_7IsolateE
      6   12.8%        LazyCompile: ~readPackage internal/modules/cjs/loader.js:231:21
      6  100.0%          LazyCompile: ~readPackageScope internal/modules/cjs/loader.js:262:26
      4   66.7%            LazyCompile: ~trySelf internal/modules/cjs/loader.js:383:17
      2   33.3%            LazyCompile: ~Module._extensions..js internal/modules/cjs/loader.js:1008:37
      5   10.6%        T __ZN2v88internal33Builtin_CallSitePrototypeToStringEiPmPNS0_7IsolateE
      2   40.0%          LazyCompile: ~isValid /Users/marcelourreli/src/backend/coder-house-backend/coder-desafio-32/node_modules/mongodb/lib/read_preference.js:130:19
      2  100.0%            LazyCompile: ~isValid /Users/marcelourreli/src/backend/coder-house-backend/coder-desafio-32/node_modules/mongodb/lib/read_preference.js:146:12
      2   40.0%          LazyCompile: ~<anonymous> /Users/marcelourreli/src/backend/coder-house-backend/coder-desafio-32/node_modules/connect-mongo/build/main/lib/MongoStore.js:236:10
      2  100.0%            LazyCompile: ~set /Users/marcelourreli/src/backend/coder-house-backend/coder-desafio-32/node_modules/connect-mongo/build/main/lib/MongoStore.js:234:8
      1   20.0%          LazyCompile: *<anonymous> /Users/marcelourreli/src/backend/coder-house-backend/coder-desafio-32/node_modules/connect-mongo/build/main/lib/MongoStore.js:236:10
      1  100.0%            LazyCompile: ~set /Users/marcelourreli/src/backend/coder-house-backend/coder-desafio-32/node_modules/connect-mongo/build/main/lib/MongoStore.js:234:8
      3    6.4%        LazyCompile: ~command /Users/marcelourreli/src/backend/coder-house-backend/coder-desafio-32/node_modules/mongodb/lib/cmap/connection.js:161:12
      3  100.0%          LazyCompile: ~<anonymous> /Users/marcelourreli/src/backend/coder-house-backend/coder-desafio-32/node_modules/mongodb/lib/sdam/server.js:171:42
      3  100.0%            LazyCompile: ~<anonymous> /Users/marcelourreli/src/backend/coder-house-backend/coder-desafio-32/node_modules/mongodb/lib/cmap/connection_pool.js:264:23
      3    6.4%        LazyCompile: *command /Users/marcelourreli/src/backend/coder-house-backend/coder-desafio-32/node_modules/mongodb/lib/cmap/connection.js:161:12
      3  100.0%          LazyCompile: ~<anonymous> /Users/marcelourreli/src/backend/coder-house-backend/coder-desafio-32/node_modules/mongodb/lib/sdam/server.js:171:42
      3  100.0%            LazyCompile: ~<anonymous> /Users/marcelourreli/src/backend/coder-house-backend/coder-desafio-32/node_modules/mongodb/lib/cmap/connection_pool.js:264:23
      2    4.3%        LazyCompile: ~stat internal/modules/cjs/loader.js:123:14
      1   50.0%          LazyCompile: ~tryFile internal/modules/cjs/loader.js:326:17
      1  100.0%            LazyCompile: ~tryExtensions internal/modules/cjs/loader.js:342:23
      1   50.0%          LazyCompile: ~Module._findPath internal/modules/cjs/loader.js:436:28
      1  100.0%            LazyCompile: ~Module._resolveFilename internal/modules/cjs/loader.js:731:35
      2    4.3%        LazyCompile: ~messageHandler /Users/marcelourreli/src/backend/coder-house-backend/coder-desafio-32/node_modules/mongodb/lib/cmap/connection.js:421:35
      2  100.0%          LazyCompile: *processIncomingData /Users/marcelourreli/src/backend/coder-house-backend/coder-desafio-32/node_modules/mongodb/lib/cmap/message_stream.js:79:29
      2  100.0%            LazyCompile: *Writable.write _stream_writable.js:291:36
      2    4.3%        LazyCompile: ~match /Users/marcelourreli/src/backend/coder-house-backend/coder-desafio-32/node_modules/express/lib/router/layer.js:110:39
      2  100.0%          LazyCompile: ~matchLayer /Users/marcelourreli/src/backend/coder-house-backend/coder-desafio-32/node_modules/express/lib/router/index.js:572:20
      2  100.0%            LazyCompile: ~next /Users/marcelourreli/src/backend/coder-house-backend/coder-desafio-32/node_modules/express/lib/router/index.js:176:16
      2    4.3%        LazyCompile: ~fromString /Users/marcelourreli/src/backend/coder-house-backend/coder-desafio-32/node_modules/mongodb/lib/utils.js:478:22
      2  100.0%          LazyCompile: ~ns /Users/marcelourreli/src/backend/coder-house-backend/coder-desafio-32/node_modules/mongodb/lib/utils.js:456:12
      1   50.0%            LazyCompile: ~<anonymous> /Users/marcelourreli/src/backend/coder-house-backend/coder-desafio-32/node_modules/mongodb/lib/cursor/abstract_cursor.js:442:46
      1   50.0%            LazyCompile: ~<anonymous> /Users/marcelourreli/src/backend/coder-house-backend/coder-desafio-32/node_modules/mongodb/lib/cmap/connect.js:63:43
      2    4.3%        LazyCompile: ~<anonymous> /Users/marcelourreli/src/backend/coder-house-backend/coder-desafio-32/node_modules/connect-mongo/build/main/lib/MongoStore.js:236:10
      2  100.0%          LazyCompile: ~set /Users/marcelourreli/src/backend/coder-house-backend/coder-desafio-32/node_modules/connect-mongo/build/main/lib/MongoStore.js:234:8
      2  100.0%            LazyCompile: ~save /Users/marcelourreli/src/backend/coder-house-backend/coder-desafio-32/node_modules/express-session/session/session.js:71:54
      1    2.1%        LazyCompile: ~translatePeerCertificate _tls_common.js:311:69
      1  100.0%          LazyCompile: ~TLSSocket.getPeerCertificate _tls_wrap.js:977:50
      1  100.0%            LazyCompile: ~onConnectSecure _tls_wrap.js:1488:25
      1    2.1%        LazyCompile: ~set maxAge /Users/marcelourreli/src/backend/coder-house-backend/coder-desafio-32/node_modules/express-session/session/cookie.js:83:13
      1  100.0%          LazyCompile: ~resetMaxAge /Users/marcelourreli/src/backend/coder-house-backend/coder-desafio-32/node_modules/express-session/session/session.js:58:68
      1  100.0%            LazyCompile: ~touch /Users/marcelourreli/src/backend/coder-house-backend/coder-desafio-32/node_modules/express-session/session/session.js:47:56
      1    2.1%        LazyCompile: ~promiseOrCallback /Users/marcelourreli/src/backend/coder-house-backend/coder-desafio-32/node_modules/mongoose/lib/helpers/promiseOrCallback.js:8:44
      1  100.0%          LazyCompile: ~Mongoose._promiseOrCallback /Users/marcelourreli/src/backend/coder-house-backend/coder-desafio-32/node_modules/mongoose/lib/index.js:1150:49
      1  100.0%            LazyCompile: ~Mongoose.connect /Users/marcelourreli/src/backend/coder-house-backend/coder-desafio-32/node_modules/mongoose/lib/index.js:325:38
      1    2.1%        LazyCompile: ~populateMaps /Users/marcelourreli/src/backend/coder-house-backend/coder-desafio-32/node_modules/mime-types/index.js:154:23
      1  100.0%          Eval: ~<anonymous> /Users/marcelourreli/src/backend/coder-house-backend/coder-desafio-32/node_modules/mime-types/index.js:1:1
      1  100.0%            LazyCompile: ~Module._compile internal/modules/cjs/loader.js:953:37
      1    2.1%        LazyCompile: ~parseOpts /Users/marcelourreli/src/backend/coder-house-backend/coder-desafio-32/node_modules/@mapbox/node-pre-gyp/lib/node-pre-gyp.js:144:37
      1  100.0%          LazyCompile: ~Run /Users/marcelourreli/src/backend/coder-house-backend/coder-desafio-32/node_modules/@mapbox/node-pre-gyp/lib/node-pre-gyp.js:78:13
      1  100.0%            LazyCompile: ~exports.find /Users/marcelourreli/src/backend/coder-house-backend/coder-desafio-32/node_modules/@mapbox/node-pre-gyp/lib/pre-binding.js:17:24
      1    2.1%        LazyCompile: ~parse url.js:159:37
      1  100.0%          LazyCompile: ~urlParse url.js:151:18
      1  100.0%            LazyCompile: ~validate_config /Users/marcelourreli/src/backend/coder-house-backend/coder-desafio-32/node_modules/@mapbox/node-pre-gyp/lib/util/versioning.js:195:25
      1    2.1%        LazyCompile: ~parse /Users/marcelourreli/src/backend/coder-house-backend/coder-desafio-32/node_modules/dotenv/lib/main.js:38:16
      1  100.0%          LazyCompile: ~config /Users/marcelourreli/src/backend/coder-house-backend/coder-desafio-32/node_modules/dotenv/lib/main.js:82:17
      1  100.0%            Eval: ~<anonymous> /Users/marcelourreli/src/backend/coder-house-backend/coder-desafio-32/src/config/globals.js:1:1
      1    2.1%        LazyCompile: ~module.exports /Users/marcelourreli/src/backend/coder-house-backend/coder-desafio-32/node_modules/has-unicode/index.js:4:44
      1  100.0%          LazyCompile: ~Gauge._computeTheme /Users/marcelourreli/src/backend/coder-house-backend/coder-desafio-32/node_modules/gauge/index.js:85:42
      1  100.0%            LazyCompile: ~Gauge /Users/marcelourreli/src/backend/coder-house-backend/coder-desafio-32/node_modules/gauge/index.js:19:16
      1    2.1%        LazyCompile: ~isIPv4 internal/net.js:30:16
      1  100.0%          LazyCompile: ~isIP internal/net.js:38:14
      1  100.0%            LazyCompile: ~parseSslOptions /Users/marcelourreli/src/backend/coder-house-backend/coder-desafio-32/node_modules/mongodb/lib/cmap/connect.js:211:25
      1    2.1%        LazyCompile: ~header /Users/marcelourreli/src/backend/coder-house-backend/coder-desafio-32/node_modules/express/lib/response.js:754:29
      1  100.0%          LazyCompile: ~json /Users/marcelourreli/src/backend/coder-house-backend/coder-desafio-32/node_modules/express/lib/response.js:239:25
      1  100.0%            LazyCompile: ~exports.info /Users/marcelourreli/src/backend/coder-house-backend/coder-desafio-32/src/controllers/extras.js:13:16
      1    2.1%        LazyCompile: ~formatProperty internal/util/inspect.js:1674:24
      1  100.0%          LazyCompile: ~formatRaw internal/util/inspect.js:794:19
      1  100.0%            LazyCompile: ~formatValue internal/util/inspect.js:725:21
      1    2.1%        LazyCompile: ~format /Users/marcelourreli/src/backend/coder-house-backend/coder-desafio-32/node_modules/content-type/index.js:65:17
      1  100.0%          LazyCompile: ~setCharset /Users/marcelourreli/src/backend/coder-house-backend/coder-desafio-32/node_modules/express/lib/utils.js:250:41
      1  100.0%            LazyCompile: ~send /Users/marcelourreli/src/backend/coder-house-backend/coder-desafio-32/node_modules/express/lib/response.js:107:25
      1    2.1%        LazyCompile: ~continueScramConversation /Users/marcelourreli/src/backend/coder-house-backend/coder-desafio-32/node_modules/mongodb/lib/cmap/auth/scram.js:93:35
      1  100.0%          LazyCompile: ~<anonymous> /Users/marcelourreli/src/backend/coder-house-backend/coder-desafio-32/node_modules/mongodb/lib/cmap/auth/scram.js:85:75
      1  100.0%            LazyCompile: ~messageHandler /Users/marcelourreli/src/backend/coder-house-backend/coder-desafio-32/node_modules/mongodb/lib/cmap/connection.js:421:35
      1    2.1%        LazyCompile: ~checkInvalidHeaderChar _http_common.js:226:32
      1  100.0%          LazyCompile: ~<anonymous> _http_outgoing.js:518:45
      1  100.0%            LazyCompile: *hidden internal/errors.js:282:25
      1    2.1%        LazyCompile: ~Module._findPath internal/modules/cjs/loader.js:436:28
      1  100.0%          LazyCompile: ~Module._resolveFilename internal/modules/cjs/loader.js:731:35
      1  100.0%            LazyCompile: ~Module._load internal/modules/cjs/loader.js:648:24
      1    2.1%        LazyCompile: ~ConnectionString /Users/marcelourreli/src/backend/coder-house-backend/coder-desafio-32/node_modules/mongodb-connection-string-url/lib/index.js:62:16
      1  100.0%          LazyCompile: ~parseOptions /Users/marcelourreli/src/backend/coder-house-backend/coder-desafio-32/node_modules/mongodb/lib/connection_string.js:205:22
      1  100.0%            LazyCompile: ~MongoClient /Users/marcelourreli/src/backend/coder-house-backend/coder-desafio-32/node_modules/mongodb/lib/mongo_client.js:60:16
      1    2.1%        LazyCompile: ~<anonymous> internal/per_context/primordials.js:23:10
      1  100.0%          LazyCompile: ~resolveExports internal/modules/cjs/loader.js:414:24
      1  100.0%            LazyCompile: ~Module._findPath internal/modules/cjs/loader.js:436:28
      1    2.1%        LazyCompile: ~<anonymous> /Users/marcelourreli/src/backend/coder-house-backend/coder-desafio-32/node_modules/mongoose/lib/helpers/pluralize.js:86:34
      1  100.0%          T __ZN2v88internal33Builtin_CallSitePrototypeToStringEiPmPNS0_7IsolateE
      1  100.0%            LazyCompile: ~pluralize /Users/marcelourreli/src/backend/coder-house-backend/coder-desafio-32/node_modules/mongoose/lib/helpers/pluralize.js:82:19
      1    2.1%        LazyCompile: *<anonymous> internal/per_context/primordials.js:23:10
      1  100.0%          LazyCompile: ~readPackageScope internal/modules/cjs/loader.js:262:26
      1  100.0%            LazyCompile: ~Module._extensions..js internal/modules/cjs/loader.js:1008:37
      1    2.1%        Eval: ~<anonymous> /Users/marcelourreli/src/backend/coder-house-backend/coder-desafio-32/node_modules/mquery/lib/mquery.js:1:1
      1  100.0%          LazyCompile: ~Module._compile internal/modules/cjs/loader.js:953:37
      1  100.0%            LazyCompile: ~Module._extensions..js internal/modules/cjs/loader.js:1008:37
     19    4.3%      LazyCompile: ~initialize /Users/marcelourreli/src/backend/coder-house-backend/coder-desafio-32/node_modules/passport/lib/middleware/initialize.js:51:29
     12   63.2%        LazyCompile: ~handle /Users/marcelourreli/src/backend/coder-house-backend/coder-desafio-32/node_modules/express/lib/router/layer.js:86:49
     12  100.0%          LazyCompile: ~trim_prefix /Users/marcelourreli/src/backend/coder-house-backend/coder-desafio-32/node_modules/express/lib/router/index.js:288:23
     12  100.0%            LazyCompile: ~<anonymous> /Users/marcelourreli/src/backend/coder-house-backend/coder-desafio-32/node_modules/express/lib/router/index.js:275:64
      7   36.8%        LazyCompile: *trim_prefix /Users/marcelourreli/src/backend/coder-house-backend/coder-desafio-32/node_modules/express/lib/router/index.js:288:23
      4   57.1%          LazyCompile: *<anonymous> /Users/marcelourreli/src/backend/coder-house-backend/coder-desafio-32/node_modules/express/lib/router/index.js:275:64
      4  100.0%            LazyCompile: *next /Users/marcelourreli/src/backend/coder-house-backend/coder-desafio-32/node_modules/express/lib/router/index.js:176:16
      3   42.9%          LazyCompile: ~<anonymous> /Users/marcelourreli/src/backend/coder-house-backend/coder-desafio-32/node_modules/express/lib/router/index.js:275:64
      3  100.0%            LazyCompile: *next /Users/marcelourreli/src/backend/coder-house-backend/coder-desafio-32/node_modules/express/lib/router/index.js:176:16
     11    2.5%      LazyCompile: ~stringify /Users/marcelourreli/src/backend/coder-house-backend/coder-desafio-32/node_modules/express/lib/response.js:1118:20
     11  100.0%        LazyCompile: ~json /Users/marcelourreli/src/backend/coder-house-backend/coder-desafio-32/node_modules/express/lib/response.js:239:25
     11  100.0%          LazyCompile: ~exports.info /Users/marcelourreli/src/backend/coder-house-backend/coder-desafio-32/src/controllers/extras.js:13:16
      9   81.8%            LazyCompile: ~handle /Users/marcelourreli/src/backend/coder-house-backend/coder-desafio-32/node_modules/express/lib/router/layer.js:86:49
      2   18.2%            LazyCompile: *handle /Users/marcelourreli/src/backend/coder-house-backend/coder-desafio-32/node_modules/express/lib/router/layer.js:86:49
      9    2.0%      LazyCompile: ~Store.createSession /Users/marcelourreli/src/backend/coder-house-backend/coder-desafio-32/node_modules/express-session/session/store.js:86:41
      9  100.0%        LazyCompile: ~inflate /Users/marcelourreli/src/backend/coder-house-backend/coder-desafio-32/node_modules/express-session/index.js:371:22
      9  100.0%          LazyCompile: ~<anonymous> /Users/marcelourreli/src/backend/coder-house-backend/coder-desafio-32/node_modules/express-session/index.js:485:38
      9  100.0%            LazyCompile: ~<anonymous> /Users/marcelourreli/src/backend/coder-house-backend/coder-desafio-32/node_modules/connect-mongo/build/main/lib/MongoStore.js:203:10
      9    2.0%      LazyCompile: *next /Users/marcelourreli/src/backend/coder-house-backend/coder-desafio-32/node_modules/express/lib/router/index.js:176:16
      6   66.7%        LazyCompile: ~handle /Users/marcelourreli/src/backend/coder-house-backend/coder-desafio-32/node_modules/express/lib/router/index.js:136:31
      6  100.0%          LazyCompile: ~router /Users/marcelourreli/src/backend/coder-house-backend/coder-desafio-32/node_modules/express/lib/router/index.js:46:18
      4   66.7%            LazyCompile: ~handle /Users/marcelourreli/src/backend/coder-house-backend/coder-desafio-32/node_modules/express/lib/router/layer.js:86:49
      2   33.3%            LazyCompile: *trim_prefix /Users/marcelourreli/src/backend/coder-house-backend/coder-desafio-32/node_modules/express/lib/router/index.js:288:23
      1   11.1%        LazyCompile: ~jsonParser /Users/marcelourreli/src/backend/coder-house-backend/coder-desafio-32/node_modules/body-parser/lib/types/json.js:98:30
      1  100.0%          LazyCompile: *trim_prefix /Users/marcelourreli/src/backend/coder-house-backend/coder-desafio-32/node_modules/express/lib/router/index.js:288:23
      1  100.0%            LazyCompile: *<anonymous> /Users/marcelourreli/src/backend/coder-house-backend/coder-desafio-32/node_modules/express/lib/router/index.js:275:64
      1   11.1%        LazyCompile: ~<anonymous> /Users/marcelourreli/src/backend/coder-house-backend/coder-desafio-32/src/server.js:54:9
      1  100.0%          LazyCompile: ~handle /Users/marcelourreli/src/backend/coder-house-backend/coder-desafio-32/node_modules/express/lib/router/layer.js:86:49
      1  100.0%            LazyCompile: ~trim_prefix /Users/marcelourreli/src/backend/coder-house-backend/coder-desafio-32/node_modules/express/lib/router/index.js:288:23
      1   11.1%        LazyCompile: ~<anonymous> /Users/marcelourreli/src/backend/coder-house-backend/coder-desafio-32/node_modules/express-session/index.js:485:38
      1  100.0%          LazyCompile: ~<anonymous> /Users/marcelourreli/src/backend/coder-house-backend/coder-desafio-32/node_modules/connect-mongo/build/main/lib/MongoStore.js:203:10
      1  100.0%            T __ZN2v88internal33Builtin_CallSitePrototypeToStringEiPmPNS0_7IsolateE
      8    1.8%      LazyCompile: *resolve path.js:973:10
      6   75.0%        LazyCompile: ~readPackage internal/modules/cjs/loader.js:231:21
      6  100.0%          LazyCompile: ~readPackageScope internal/modules/cjs/loader.js:262:26
      5   83.3%            LazyCompile: ~trySelf internal/modules/cjs/loader.js:383:17
      1   16.7%            LazyCompile: ~Module._extensions..js internal/modules/cjs/loader.js:1008:37
      2   25.0%        LazyCompile: ~Module._findPath internal/modules/cjs/loader.js:436:28
      2  100.0%          LazyCompile: ~Module._resolveFilename internal/modules/cjs/loader.js:731:35
      2  100.0%            LazyCompile: ~Module._load internal/modules/cjs/loader.js:648:24
      7    1.6%      LazyCompile: *serializeInto /Users/marcelourreli/src/backend/coder-house-backend/coder-desafio-32/node_modules/bson/lib/parser/serializer.js:549:23
      4   57.1%        LazyCompile: *serializeInto /Users/marcelourreli/src/backend/coder-house-backend/coder-desafio-32/node_modules/bson/lib/parser/serializer.js:549:23
      3   75.0%          LazyCompile: *serializeInto /Users/marcelourreli/src/backend/coder-house-backend/coder-desafio-32/node_modules/bson/lib/parser/serializer.js:549:23
      2   66.7%            LazyCompile: ~serialize /Users/marcelourreli/src/backend/coder-house-backend/coder-desafio-32/node_modules/bson/lib/bson.js:105:19
      1   33.3%            LazyCompile: *serializeObject /Users/marcelourreli/src/backend/coder-house-backend/coder-desafio-32/node_modules/bson/lib/parser/serializer.js:257:25
      1   25.0%          LazyCompile: ~serialize /Users/marcelourreli/src/backend/coder-house-backend/coder-desafio-32/node_modules/bson/lib/bson.js:105:19
      1  100.0%            LazyCompile: ~writeCommand /Users/marcelourreli/src/backend/coder-house-backend/coder-desafio-32/node_modules/mongodb/lib/cmap/message_stream.js:35:17
      3   42.9%        LazyCompile: ~serialize /Users/marcelourreli/src/backend/coder-house-backend/coder-desafio-32/node_modules/bson/lib/bson.js:105:19
      3  100.0%          LazyCompile: ~writeCommand /Users/marcelourreli/src/backend/coder-house-backend/coder-desafio-32/node_modules/mongodb/lib/cmap/message_stream.js:35:17
      3  100.0%            LazyCompile: ~write /Users/marcelourreli/src/backend/coder-house-backend/coder-desafio-32/node_modules/mongodb/lib/cmap/connection.js:488:15
      6    1.3%      LazyCompile: ~session /Users/marcelourreli/src/backend/coder-house-backend/coder-desafio-32/node_modules/express-session/index.js:179:26
      4   66.7%        LazyCompile: ~handle /Users/marcelourreli/src/backend/coder-house-backend/coder-desafio-32/node_modules/express/lib/router/layer.js:86:49
      4  100.0%          LazyCompile: ~trim_prefix /Users/marcelourreli/src/backend/coder-house-backend/coder-desafio-32/node_modules/express/lib/router/index.js:288:23
      4  100.0%            LazyCompile: ~<anonymous> /Users/marcelourreli/src/backend/coder-house-backend/coder-desafio-32/node_modules/express/lib/router/index.js:275:64
      2   33.3%        LazyCompile: *trim_prefix /Users/marcelourreli/src/backend/coder-house-backend/coder-desafio-32/node_modules/express/lib/router/index.js:288:23
      2  100.0%          LazyCompile: *<anonymous> /Users/marcelourreli/src/backend/coder-house-backend/coder-desafio-32/node_modules/express/lib/router/index.js:275:64
      2  100.0%            LazyCompile: *next /Users/marcelourreli/src/backend/coder-house-backend/coder-desafio-32/node_modules/express/lib/router/index.js:176:16
      6    1.3%      LazyCompile: ~Module._load internal/modules/cjs/loader.js:648:24
      6  100.0%        LazyCompile: ~Module.require internal/modules/cjs/loader.js:879:36
      6  100.0%          LazyCompile: ~require internal/modules/cjs/helpers.js:73:31
      1   16.7%            Eval: ~<anonymous> /Users/marcelourreli/src/backend/coder-house-backend/coder-desafio-32/node_modules/socket.io/node_modules/debug/src/node.js:1:1
      1   16.7%            Eval: ~<anonymous> /Users/marcelourreli/src/backend/coder-house-backend/coder-desafio-32/node_modules/semver/index.js:1:1
      1   16.7%            Eval: ~<anonymous> /Users/marcelourreli/src/backend/coder-house-backend/coder-desafio-32/node_modules/passport-oauth2/lib/index.js:1:1
      1   16.7%            Eval: ~<anonymous> /Users/marcelourreli/src/backend/coder-house-backend/coder-desafio-32/node_modules/mongoose/lib/types/array/methods/index.js:1:1
      1   16.7%            Eval: ~<anonymous> /Users/marcelourreli/src/backend/coder-house-backend/coder-desafio-32/node_modules/mongoose/lib/helpers/populate/removeDeselectedForeignField.js:1:1
      1   16.7%            Eval: ~<anonymous> /Users/marcelourreli/src/backend/coder-house-backend/coder-desafio-32/node_modules/express/lib/request.js:1:1
      6    1.3%      LazyCompile: ~Module._findPath internal/modules/cjs/loader.js:436:28
      6  100.0%        LazyCompile: ~Module._resolveFilename internal/modules/cjs/loader.js:731:35
      6  100.0%          LazyCompile: ~Module._load internal/modules/cjs/loader.js:648:24
      6  100.0%            LazyCompile: ~Module.require internal/modules/cjs/loader.js:879:36
      5    1.1%      LazyCompile: ~json /Users/marcelourreli/src/backend/coder-house-backend/coder-desafio-32/node_modules/express/lib/response.js:239:25
      5  100.0%        LazyCompile: ~exports.info /Users/marcelourreli/src/backend/coder-house-backend/coder-desafio-32/src/controllers/extras.js:13:16
      3   60.0%          LazyCompile: ~handle /Users/marcelourreli/src/backend/coder-house-backend/coder-desafio-32/node_modules/express/lib/router/layer.js:86:49
      3  100.0%            LazyCompile: ~next /Users/marcelourreli/src/backend/coder-house-backend/coder-desafio-32/node_modules/express/lib/router/route.js:114:16
      2   40.0%          LazyCompile: *handle /Users/marcelourreli/src/backend/coder-house-backend/coder-desafio-32/node_modules/express/lib/router/layer.js:86:49
      2  100.0%            LazyCompile: ~next /Users/marcelourreli/src/backend/coder-house-backend/coder-desafio-32/node_modules/express/lib/router/route.js:114:16
      5    1.1%      LazyCompile: ~deserialize /Users/marcelourreli/src/backend/coder-house-backend/coder-desafio-32/node_modules/bson/lib/parser/deserializer.js:24:21
      5  100.0%        LazyCompile: ~deserialize /Users/marcelourreli/src/backend/coder-house-backend/coder-desafio-32/node_modules/bson/lib/bson.js:156:21
      4   80.0%          LazyCompile: ~parse /Users/marcelourreli/src/backend/coder-house-backend/coder-desafio-32/node_modules/mongodb/lib/cmap/commands.js:577:10
      4  100.0%            LazyCompile: ~messageHandler /Users/marcelourreli/src/backend/coder-house-backend/coder-desafio-32/node_modules/mongodb/lib/cmap/connection.js:421:35
      1   20.0%          LazyCompile: ~parse /Users/marcelourreli/src/backend/coder-house-backend/coder-desafio-32/node_modules/mongodb/lib/cmap/commands.js:384:10
      1  100.0%            LazyCompile: ~messageHandler /Users/marcelourreli/src/backend/coder-house-backend/coder-desafio-32/node_modules/mongodb/lib/cmap/connection.js:421:35
      5    1.1%      LazyCompile: ~_storeHeader _http_outgoing.js:342:22
      5  100.0%        LazyCompile: ~writeHead _http_server.js:243:19
      5  100.0%          LazyCompile: ~writeHead /Users/marcelourreli/src/backend/coder-house-backend/coder-desafio-32/node_modules/on-headers/index.js:28:29
      5  100.0%            LazyCompile: ~_implicitHeader _http_server.js:238:68
      5    1.1%      LazyCompile: ~Module._extensions..json internal/modules/cjs/loader.js:1032:39
      5  100.0%        LazyCompile: ~Module.load internal/modules/cjs/loader.js:851:33
      5  100.0%          LazyCompile: ~Module._load internal/modules/cjs/loader.js:648:24
      5  100.0%            LazyCompile: ~Module.require internal/modules/cjs/loader.js:879:36
      5    1.1%      LazyCompile: ~Hash internal/crypto/hash.js:39:14
      5  100.0%        LazyCompile: ~createHash crypto.js:114:20
      4   80.0%          LazyCompile: ~hash /Users/marcelourreli/src/backend/coder-house-backend/coder-desafio-32/node_modules/express-session/index.js:596:14
      2   50.0%            LazyCompile: ~save /Users/marcelourreli/src/backend/coder-house-backend/coder-desafio-32/node_modules/express-session/index.js:403:20
      2   50.0%            LazyCompile: ~inflate /Users/marcelourreli/src/backend/coder-house-backend/coder-desafio-32/node_modules/express-session/index.js:371:22
      1   20.0%          LazyCompile: ~entitytag /Users/marcelourreli/src/backend/coder-house-backend/coder-desafio-32/node_modules/etag/index.js:39:20
      1  100.0%            LazyCompile: ~etag /Users/marcelourreli/src/backend/coder-house-backend/coder-desafio-32/node_modules/etag/index.js:70:15
      5    1.1%      LazyCompile: *realpathSync fs.js:1568:22
      5  100.0%        LazyCompile: ~toRealPath internal/modules/cjs/loader.js:335:20
      3   60.0%          LazyCompile: ~tryFile internal/modules/cjs/loader.js:326:17
      3  100.0%            LazyCompile: ~tryExtensions internal/modules/cjs/loader.js:342:23
      2   40.0%          LazyCompile: ~Module._findPath internal/modules/cjs/loader.js:436:28
      2  100.0%            LazyCompile: ~Module._resolveFilename internal/modules/cjs/loader.js:731:35
      5    1.1%      LazyCompile: *processTicksAndRejections internal/process/task_queues.js:69:35
      5    1.1%      LazyCompile: *deserializeObject /Users/marcelourreli/src/backend/coder-house-backend/coder-desafio-32/node_modules/bson/lib/parser/deserializer.js:53:27
      4   80.0%        LazyCompile: *deserializeObject /Users/marcelourreli/src/backend/coder-house-backend/coder-desafio-32/node_modules/bson/lib/parser/deserializer.js:53:27
      2   50.0%          LazyCompile: ~deserialize /Users/marcelourreli/src/backend/coder-house-backend/coder-desafio-32/node_modules/bson/lib/parser/deserializer.js:24:21
      2  100.0%            LazyCompile: ~deserialize /Users/marcelourreli/src/backend/coder-house-backend/coder-desafio-32/node_modules/bson/lib/bson.js:156:21
      2   50.0%          LazyCompile: *deserializeObject /Users/marcelourreli/src/backend/coder-house-backend/coder-desafio-32/node_modules/bson/lib/parser/deserializer.js:53:27
      1   50.0%            LazyCompile: ~deserialize /Users/marcelourreli/src/backend/coder-house-backend/coder-desafio-32/node_modules/bson/lib/parser/deserializer.js:24:21
      1   50.0%            LazyCompile: *deserializeObject /Users/marcelourreli/src/backend/coder-house-backend/coder-desafio-32/node_modules/bson/lib/parser/deserializer.js:53:27
      1   20.0%        LazyCompile: ~deserialize /Users/marcelourreli/src/backend/coder-house-backend/coder-desafio-32/node_modules/bson/lib/parser/deserializer.js:24:21
      1  100.0%          LazyCompile: ~deserialize /Users/marcelourreli/src/backend/coder-house-backend/coder-desafio-32/node_modules/bson/lib/bson.js:156:21
      1  100.0%            LazyCompile: ~parse /Users/marcelourreli/src/backend/coder-house-backend/coder-desafio-32/node_modules/mongodb/lib/cmap/commands.js:577:10

    184    4.5%  t node::fs::Read(v8::FunctionCallbackInfo<v8::Value> const&)
    184  100.0%    T __ZN2v88internal21Builtin_HandleApiCallEiPmPNS0_7IsolateE
    184  100.0%      LazyCompile: ~readSync fs.js:536:18
    184  100.0%        LazyCompile: ~tryReadSync fs.js:349:21
    184  100.0%          LazyCompile: ~readFileSync fs.js:361:22
    183   99.5%            LazyCompile: ~Module._extensions..js internal/modules/cjs/loader.js:1008:37

    125    3.1%  T node::contextify::ContextifyContext::CompileFunction(v8::FunctionCallbackInfo<v8::Value> const&)
    125  100.0%    T __ZN2v88internal21Builtin_HandleApiCallEiPmPNS0_7IsolateE
    125  100.0%      LazyCompile: ~wrapSafe internal/modules/cjs/loader.js:899:18
    125  100.0%        LazyCompile: ~Module._compile internal/modules/cjs/loader.js:953:37
    125  100.0%          LazyCompile: ~Module._extensions..js internal/modules/cjs/loader.js:1008:37
    125  100.0%            LazyCompile: ~Module.load internal/modules/cjs/loader.js:851:33

     53    1.3%  T void node::StreamBase::JSMethod<&(node::StreamBase::WriteBuffer(v8::FunctionCallbackInfo<v8::Value> const&))>(v8::FunctionCallbackInfo<v8::Value> const&)
     53  100.0%    T __ZN2v88internal21Builtin_HandleApiCallEiPmPNS0_7IsolateE
     53  100.0%      LazyCompile: ~handleWriteReq internal/stream_base_commons.js:47:24
     53  100.0%        LazyCompile: ~writeGeneric internal/stream_base_commons.js:143:22
     32   60.4%          LazyCompile: *Writable.write _stream_writable.js:291:36
     32  100.0%            LazyCompile: ~ondata _stream_readable.js:716:18
     21   39.6%          LazyCompile: ~Socket._writeGeneric net.js:761:42
     21  100.0%            LazyCompile: ~Socket._write net.js:798:35

     51    1.3%  T node::native_module::NativeModuleEnv::CompileFunction(v8::FunctionCallbackInfo<v8::Value> const&)
     51  100.0%    T __ZN2v88internal21Builtin_HandleApiCallEiPmPNS0_7IsolateE
     51  100.0%      LazyCompile: ~compileForInternalLoader internal/bootstrap/loaders.js:264:27
     45   88.2%        LazyCompile: ~nativeModuleRequire internal/bootstrap/loaders.js:297:29
      4    8.9%          Eval: ~<anonymous> internal/bootstrap/node.js:1:1
      4    8.9%          Eval: ~<anonymous> crypto.js:1:1
      4  100.0%            LazyCompile: ~compileForInternalLoader internal/bootstrap/loaders.js:264:27
      3    6.7%          Eval: ~<anonymous> tls.js:1:1
      3  100.0%            LazyCompile: ~compileForInternalLoader internal/bootstrap/loaders.js:264:27
      3    6.7%          Eval: ~<anonymous> stream.js:1:1
      3  100.0%            LazyCompile: ~compileForInternalLoader internal/bootstrap/loaders.js:264:27
      3    6.7%          Eval: ~<anonymous> internal/modules/esm/loader.js:1:1
      3  100.0%            LazyCompile: ~compileForInternalLoader internal/bootstrap/loaders.js:264:27
      2    4.4%          Eval: ~<anonymous> net.js:1:1
      2  100.0%            LazyCompile: ~compileForInternalLoader internal/bootstrap/loaders.js:264:27
      2    4.4%          Eval: ~<anonymous> http.js:1:1
      2  100.0%            LazyCompile: ~compileForInternalLoader internal/bootstrap/loaders.js:264:27
      2    4.4%          Eval: ~<anonymous> fs.js:1:1
      2  100.0%            LazyCompile: ~compileForInternalLoader internal/bootstrap/loaders.js:264:27
      2    4.4%          Eval: ~<anonymous> events.js:1:1
      2  100.0%            LazyCompile: ~compileForInternalLoader internal/bootstrap/loaders.js:264:27
      1    2.2%          LazyCompile: ~setupPrepareStackTrace internal/bootstrap/node.js:252:32
      1  100.0%            Eval: ~<anonymous> internal/bootstrap/node.js:1:1
      1    2.2%          LazyCompile: ~setupBuffer internal/bootstrap/node.js:330:21
      1  100.0%            Eval: ~<anonymous> internal/bootstrap/node.js:1:1
      1    2.2%          LazyCompile: ~initializeCJSLoader internal/bootstrap/pre_execution.js:404:29
      1  100.0%            LazyCompile: ~prepareMainThreadExecution internal/bootstrap/pre_execution.js:17:36
      1    2.2%          LazyCompile: ~get fs.js:2070:8
      1  100.0%            T __ZN2v88internal33Builtin_CallSitePrototypeToStringEiPmPNS0_7IsolateE
      1    2.2%          LazyCompile: ~get dns.js:324:8
      1  100.0%            T __ZN2v88internal33Builtin_CallSitePrototypeToStringEiPmPNS0_7IsolateE
      1    2.2%          Eval: ~<anonymous> tty.js:1:1
      1  100.0%            LazyCompile: ~compileForInternalLoader internal/bootstrap/loaders.js:264:27
      1    2.2%          Eval: ~<anonymous> timers.js:1:1
      1  100.0%            LazyCompile: ~compileForInternalLoader internal/bootstrap/loaders.js:264:27
      1    2.2%          Eval: ~<anonymous> internal/url.js:1:1
      1  100.0%            LazyCompile: ~compileForInternalLoader internal/bootstrap/loaders.js:264:27
      1    2.2%          Eval: ~<anonymous> internal/source_map/source_map_cache.js:1:1
      1  100.0%            LazyCompile: ~compileForInternalLoader internal/bootstrap/loaders.js:264:27
      1    2.2%          Eval: ~<anonymous> internal/modules/cjs/loader.js:1:1
      1  100.0%            LazyCompile: ~compileForInternalLoader internal/bootstrap/loaders.js:264:27
      1    2.2%          Eval: ~<anonymous> internal/modules/cjs/helpers.js:1:1
      1  100.0%            LazyCompile: ~compileForInternalLoader internal/bootstrap/loaders.js:264:27
      1    2.2%          Eval: ~<anonymous> internal/console/global.js:1:1
      1  100.0%            LazyCompile: ~compileForInternalLoader internal/bootstrap/loaders.js:264:27
      1    2.2%          Eval: ~<anonymous> internal/cluster/master.js:1:1
      1  100.0%            LazyCompile: ~compileForInternalLoader internal/bootstrap/loaders.js:264:27
      1    2.2%          Eval: ~<anonymous> internal/child_process.js:1:1
      1  100.0%            LazyCompile: ~compileForInternalLoader internal/bootstrap/loaders.js:264:27
      1    2.2%          Eval: ~<anonymous> internal/bootstrap/switches/is_main_thread.js:1:1
      1    2.2%          Eval: ~<anonymous> dns.js:1:1
      1  100.0%            LazyCompile: ~compileForInternalLoader internal/bootstrap/loaders.js:264:27
      1    2.2%          Eval: ~<anonymous> child_process.js:1:1
      1  100.0%            LazyCompile: ~compileForInternalLoader internal/bootstrap/loaders.js:264:27
      1    2.2%          Eval: ~<anonymous> buffer.js:1:1
      1  100.0%            LazyCompile: ~compileForInternalLoader internal/bootstrap/loaders.js:264:27
      1    2.2%          Eval: ~<anonymous> assert.js:1:1
      1  100.0%            LazyCompile: ~compileForInternalLoader internal/bootstrap/loaders.js:264:27
      1    2.2%          Eval: ~<anonymous> _http_agent.js:1:1
      1  100.0%            LazyCompile: ~compileForInternalLoader internal/bootstrap/loaders.js:264:27
      6   11.8%        LazyCompile: ~compileForPublicLoader internal/bootstrap/loaders.js:213:25
      6  100.0%          LazyCompile: ~loadNativeModule internal/modules/cjs/helpers.js:22:26
      6  100.0%            LazyCompile: ~Module._load internal/modules/cjs/loader.js:648:24

